Superstore dataset
…
Las demas variables que no fueron nombradas, sern descartadas ya no
que no fueron relevantes para el anlisis del objetivo propuesto.

#Ver si es necesario

## # A tibble: 9,994 x 22
##    `Row ID` `Order ID` `Order Date` `Ship Date` `Ship Mode` `Customer ID`
##       <dbl>      <dbl>        <dbl>       <dbl>       <dbl>         <dbl>
##  1        0          0            0           0           0             0
##  2        0          0            0           0           0             0
##  3        0          0            0           0           0             0
##  4        0          0            0           0           0             0
##  5        0          0            0           0           0             0
##  6        0          0            0           0           0             0
##  7        0          0            0           0           0             0
##  8        0          0            0           0           0             0
##  9        0          0            0           0           0             0
## 10        0          0            0           0           0             0
## # ... with 9,984 more rows, and 16 more variables: `Customer Name` <dbl>,
## #   Segment <dbl>, Country <dbl>, City <dbl>, State <dbl>, `Postal Code` <dbl>,
## #   Region <dbl>, `Product ID` <dbl>, Category <dbl>, `Sub-Category` <dbl>,
## #   `Product Name` <dbl>, Sales <dbl>, Quantity <dbl>, Discount <dbl>,
## #   Profit <dbl>, Price <dbl>
…
## # A tibble: 6,026 x 22
##    `Row ID` `Order ID`     `Order Date` `Ship Date` `Ship Mode`    `Customer ID`
##       <dbl> <chr>          <chr>        <chr>       <chr>          <chr>        
##  1        3 CA-2016-138688 6/12/2016    6/16/2016   Second Class   DV-13045     
##  2        5 US-2015-108966 10/11/2015   10/18/2015  Standard Class SO-20335     
##  3        7 CA-2014-115812 6/9/2014     6/14/2014   Standard Class BH-11710     
##  4        9 CA-2014-115812 6/9/2014     6/14/2014   Standard Class BH-11710     
##  5       10 CA-2014-115812 6/9/2014     6/14/2014   Standard Class BH-11710     
##  6       13 CA-2017-114412 4/15/2017    4/20/2017   Standard Class AA-10480     
##  7       14 CA-2016-161389 12/5/2016    12/10/2016  Standard Class IM-15070     
##  8       15 US-2015-118983 11/22/2015   11/26/2015  Standard Class HP-14815     
##  9       16 US-2015-118983 11/22/2015   11/26/2015  Standard Class HP-14815     
## 10       17 CA-2014-105893 11/11/2014   11/18/2014  Standard Class PK-19075     
## # ... with 6,016 more rows, and 16 more variables: `Customer Name` <chr>,
## #   Segment <chr>, Country <chr>, City <chr>, State <chr>, `Postal Code` <dbl>,
## #   Region <chr>, `Product ID` <chr>, Category <chr>, `Sub-Category` <chr>,
## #   `Product Name` <chr>, Sales <dbl>, Quantity <dbl>, Discount <dbl>,
## #   Profit <dbl>, Price <dbl>
…
